module github.com/rancher/k3d/v5

go 1.17

require (
	github.com/Microsoft/go-winio v0.5.1 // indirect
	github.com/Microsoft/hcsshim v0.9.1 // indirect
	github.com/containerd/cgroups v1.0.2 // indirect
	github.com/containerd/containerd v1.5.7
	github.com/docker/cli v20.10.10+incompatible
	github.com/docker/docker v20.10.10+incompatible
	github.com/docker/docker-credential-helpers v0.6.4 // indirect
	github.com/docker/go-connections v0.4.0
	github.com/docker/go-metrics v0.0.1 // indirect
	github.com/docker/go-units v0.4.0
	github.com/fvbommel/sortorder v1.0.2 // indirect
	github.com/go-test/deep v1.0.8
	github.com/imdario/mergo v0.3.12
	github.com/liggitt/tabwriter v0.0.0-20181228230101-89fcab3d43de
	github.com/mitchellh/copystructure v1.2.0
	github.com/mitchellh/go-homedir v1.1.0
	github.com/moby/sys/mount v0.3.0 // indirect
	github.com/moby/term v0.0.0-20210619224110-3f7ff695adc6 // indirect
	github.com/morikuni/aec v1.0.0 // indirect
	github.com/opencontainers/runc v1.0.2 // indirect
	github.com/pkg/errors v0.9.1
	github.com/sirupsen/logrus v1.8.1
	github.com/spf13/cobra v1.2.1
	github.com/spf13/viper v1.9.0
	github.com/theupdateframework/notary v0.7.0 // indirect
	github.com/xeipuuv/gojsonpointer v0.0.0-20190905194746-02993c407bfb // indirect
	github.com/xeipuuv/gojsonschema v1.2.0
	golang.org/x/sync v0.0.0-20210220032951-036812b2e83c
	golang.org/x/sys v0.0.0-20211112143042-c6105e7cf70d // indirect
	golang.org/x/text v0.3.7 // indirect
	gopkg.in/yaml.v2 v2.4.0
	gotest.tools v2.2.0+incompatible
	inet.af/netaddr v0.0.0-20210903134321-85fa6c94624e
	k8s.io/client-go v0.22.3
	sigs.k8s.io/yaml v1.3.0
)

require github.com/spf13/pflag v1.0.5

require (
	github.com/Azure/go-ansiterm v0.0.0-20210617225240-d185dfc1b5a1 // indirect
	github.com/beorn7/perks v1.0.1 // indirect
	github.com/cespare/xxhash/v2 v2.1.1 // indirect
	github.com/containerd/continuity v0.2.1 // indirect
	github.com/davecgh/go-spew v1.1.1 // indirect
	github.com/docker/distribution v2.7.1+incompatible // indirect
	github.com/docker/go v1.5.1-1.0.20160303222718-d30aec9fd63c // indirect
	github.com/fsnotify/fsnotify v1.5.1 // indirect
	github.com/go-logr/logr v0.4.0 // indirect
	github.com/gogo/protobuf v1.3.2 // indirect
	github.com/golang/groupcache v0.0.0-20210331224755-41bb18bfe9da // indirect
	github.com/golang/protobuf v1.5.2 // indirect
	github.com/google/go-cmp v0.5.6 // indirect
	github.com/google/gofuzz v1.1.0 // indirect
	github.com/gorilla/mux v1.7.3 // indirect
	github.com/hashicorp/hcl v1.0.0 // indirect
	github.com/inconshreveable/mousetrap v1.0.0 // indirect
	github.com/json-iterator/go v1.1.11 // indirect
	github.com/magiconair/properties v1.8.5 // indirect
	github.com/matttproud/golang_protobuf_extensions v1.0.2-0.20181231171920-c182affec369 // indirect
	github.com/miekg/pkcs11 v1.0.3 // indirect
	github.com/mitchellh/mapstructure v1.4.2 // indirect
	github.com/mitchellh/reflectwalk v1.0.2 // indirect
	github.com/moby/sys/mountinfo v0.5.0 // indirect
	github.com/modern-go/concurrent v0.0.0-20180306012644-bacd9c7ef1dd // indirect
	github.com/modern-go/reflect2 v1.0.1 // indirect
	github.com/opencontainers/go-digest v1.0.0 // indirect
	github.com/opencontainers/image-spec v1.0.1 // indirect
	github.com/pelletier/go-toml v1.9.4 // indirect
	github.com/prometheus/client_golang v1.7.1 // indirect
	github.com/prometheus/client_model v0.2.0 // indirect
	github.com/prometheus/common v0.10.0 // indirect
	github.com/prometheus/procfs v0.6.0 // indirect
	github.com/spf13/afero v1.6.0 // indirect
	github.com/spf13/cast v1.4.1 // indirect
	github.com/spf13/jwalterweatherman v1.1.0 // indirect
	github.com/subosito/gotenv v1.2.0 // indirect
	github.com/xeipuuv/gojsonreference v0.0.0-20180127040603-bd5ef7bd5415 // indirect
	go.opencensus.io v0.23.0 // indirect
	go4.org/intern v0.0.0-20210108033219-3eb7198706b2 // indirect
	go4.org/unsafe/assume-no-moving-gc v0.0.0-20201222180813-1025295fd063 // indirect
	golang.org/x/crypto v0.0.0-20210817164053-32db794688a5 // indirect
	golang.org/x/net v0.0.0-20211111160137-58aab5ef257a // indirect
	golang.org/x/oauth2 v0.0.0-20210819190943-2bc19b11175f // indirect
	golang.org/x/term v0.0.0-20210220032956-6a3ed077a48d // indirect
	golang.org/x/time v0.0.0-20210723032227-1f47c861a9ac // indirect
	google.golang.org/appengine v1.6.7 // indirect
	google.golang.org/genproto v0.0.0-20211112145013-271947fe86fd // indirect
	google.golang.org/grpc v1.42.0 // indirect
	google.golang.org/protobuf v1.27.1 // indirect
	gopkg.in/inf.v0 v0.9.1 // indirect
	gopkg.in/ini.v1 v1.64.0 // indirect
	k8s.io/apimachinery v0.22.3 // indirect
	k8s.io/klog/v2 v2.9.0 // indirect
	k8s.io/utils v0.0.0-20210819203725-bdf08cb9a70a // indirect
	sigs.k8s.io/structured-merge-diff/v4 v4.1.2 // indirect
)
